<svg width="16" height="10" viewBox="0 0 16 10" fill="none" xmlns="http://www.w3.org/2000/svg">
<path d="M7.99997 9.12047C7.71322 9.12047 7.4265 9.01098 7.20788 8.79246L0.328227 1.91274C-0.109409 1.4751 -0.109409 0.765553 0.328227 0.328094C0.765686 -0.109365 1.4751 -0.109365 1.91277 0.328094L7.99997 6.41566L14.0872 0.328307C14.5249 -0.109152 15.2342 -0.109152 15.6716 0.328307C16.1095 0.765766 16.1095 1.47532 15.6716 1.91295L8.79207 8.79268C8.57334 9.01123 8.28662 9.12047 7.99997 9.12047Z" fill="#646464"/>
</svg>
